TLM,PPA.ECLSS.AIR.PPA,TLM,mGCA08_Hydrogen,mGCA08_Hydrogen,PPA.ECLSS.AIR.PPA.mGCA08_Hydrogen,0,FLOAT,4,mol%,,,,,,,,,
TLM,PPA.ECLSS.AIR.PPA,TLM,mGCA09_Oxygen,mGCA09_Oxygen,PPA.ECLSS.AIR.PPA.mGCA09_Oxygen,1,FLOAT,4,mol%,,,,,,,,,
TLM,PPA.ECLSS.AIR.PPA,TLM,mGCA10_Nitrogen,mGCA10_Nitrogen,PPA.ECLSS.AIR.PPA.mGCA10_Nitrogen,2,FLOAT,4,mol%,,,,,,,,,
TLM,PPA.ECLSS.AIR.PPA,TLM,mGCA11_Carbon_Monoxide,mGCA11_Carbon_Monoxide,PPA.ECLSS.AIR.PPA.mGCA11_Carbon_Monoxide,3,FLOAT,4,mol%,,,,,,,,,
TLM,PPA.ECLSS.AIR.PPA,TLM,mGCA12_Methane,mGCA12_Methane,PPA.ECLSS.AIR.PPA.mGCA12_Methane,4,FLOAT,4,mol%,,,,,,,,,
TLM,PPA.ECLSS.AIR.PPA,TLM,mGCC13_CO2,mGCC13_CO2,PPA.ECLSS.AIR.PPA.mGCC13_CO2,5,FLOAT,4,mol%,,,,,,,,,
TLM,PPA.ECLSS.AIR.PPA,TLM,mGCC14_Methane,mGCC14_Methane,PPA.ECLSS.AIR.PPA.mGCC14_Methane,6,FLOAT,4,mol%,,,,,,,,,
TLM,PPA.ECLSS.AIR.PPA,TLM,mGCC15_Ethylene,mGCC15_Ethylene,PPA.ECLSS.AIR.PPA.mGCC15_Ethylene,7,FLOAT,4,mol%,,,,,,,,,
TLM,PPA.ECLSS.AIR.PPA,TLM,mGCC16_Acetylene,mGCC16_Acetylene,PPA.ECLSS.AIR.PPA.mGCC16_Acetylene,8,FLOAT,4,mol%,,,,,,,,,
TLM,PPA.ECLSS.AIR.PPA,TLM,gPPASVC132,gPPASVC132,PPA.ECLSS.AIR.PPA.gPPASVC132,9,{OPEN=0 CLOSE=1},1,,,,,,,,,,
TLM,PPA.ECLSS.AIR.PPA,TLM,gPPASVC133,gPPASVC133,PPA.ECLSS.AIR.PPA.gPPASVC133,10,{OPEN=0 CLOSE=1},1,,,,,,,,,,
TLM,PPA.ECLSS.AIR.PPA,TLM,gPPASVC134,gPPASVC134,PPA.ECLSS.AIR.PPA.gPPASVC134,11,{OPEN=0 CLOSE=1},1,,,,,,,,,,
TLM,PPA.ECLSS.AIR.PPA,TLM,SABSV_220,SABSV_220,PPA.ECLSS.AIR.PPA.SABSV_220,12,{OPEN=0 CLOSE=1},1,,,,,,,,,,
TLM,PPA.ECLSS.AIR.PPA,TLM,SABSV_221,SABSV_221,PPA.ECLSS.AIR.PPA.SABSV_221,13,{OPEN=0 CLOSE=1},1,,,,,,,,,,
TLM,PPA.ECLSS.AIR.PPA,TLM,gPPA_CH4_CO2_cmd,gPPA_CH4_CO2_cmd,PPA.ECLSS.AIR.PPA.gPPA_CH4_CO2_cmd,14,FLOAT,4,SmLPM,,,,,,,,,
TLM,PPA.ECLSS.AIR.PPA,TLM,gPPA_H2_main_cmd,gPPA_H2_main_cmd,PPA.ECLSS.AIR.PPA.gPPA_H2_main_cmd,15,FLOAT,4,SmLPM,,,,,,,,,
TLM,PPA.ECLSS.AIR.PPA,TLM,gPPA_H2_viewport_cmd,gPPA_H2_viewport_cmd,PPA.ECLSS.AIR.PPA.gPPA_H2_viewport_cmd,16,FLOAT,4,SmLPM,,,,,,,,,
TLM,PPA.ECLSS.AIR.PPA,TLM,gPPA_FC104,gPPA_FC104,PPA.ECLSS.AIR.PPA.gPPA_FC104,17,FLOAT,4,SmLPM,,,,,,,,,
TLM,PPA.ECLSS.AIR.PPA,TLM,gPPA_FC105,gPPA_FC105,PPA.ECLSS.AIR.PPA.gPPA_FC105,18,FLOAT,4,SmLPM,,,,,,,,,
TLM,PPA.ECLSS.AIR.PPA,TLM,gPPA_FC106,gPPA_FC106,PPA.ECLSS.AIR.PPA.gPPA_FC106,19,FLOAT,4,SmLPM,,,,,,,,,
TLM,PPA.ECLSS.AIR.PPA,TLM,gPPA_FT104,gPPA_FT104,PPA.ECLSS.AIR.PPA.gPPA_FT104,20,FLOAT,4,SmLPM,,,,,,,,,
TLM,PPA.ECLSS.AIR.PPA,TLM,gPPA_FT105,gPPA_FT105,PPA.ECLSS.AIR.PPA.gPPA_FT105,21,FLOAT,4,SmLPM,,,,,,,,,
TLM,PPA.ECLSS.AIR.PPA,TLM,gPPA_FT106,gPPA_FT106,PPA.ECLSS.AIR.PPA.gPPA_FT106,22,FLOAT,4,SmLPM,,,,,,,,,
TLM,PPA.ECLSS.AIR.PPA,TLM,gPPA_reactor_P_cmd,gPPA_reactor_P_cmd,PPA.ECLSS.AIR.PPA.gPPA_reactor_P_cmd,23,FLOAT,4,torr,,,,,,,,,
TLM,PPA.ECLSS.AIR.PPA,TLM,gPPA_PT110,gPPA_PT110,PPA.ECLSS.AIR.PPA.gPPA_PT110,24,FLOAT,4,torr,,,,,,,,,
TLM,PPA.ECLSS.AIR.PPA,TLM,gPPA_P115,gPPA_P115,PPA.ECLSS.AIR.PPA.gPPA_P115,25,FLOAT,4,torr,,,,,,,,,
TLM,PPA.ECLSS.AIR.PPA,TLM,gPPA_P116,gPPA_P116,PPA.ECLSS.AIR.PPA.gPPA_P116,26,FLOAT,4,torr,,,,,,,,,
TLM,PPA.ECLSS.AIR.PPA,TLM,gPPA_CO2_regen_cmd,gPPA_CO2_regen_cmd,PPA.ECLSS.AIR.PPA.gPPA_CO2_regen_cmd,27,{TRUE=0 FALSE=1},1,,,,,,,,,,
TLM,PPA.ECLSS.AIR.PPA,TLM,gPPAuWstart,gPPAuWstart,PPA.ECLSS.AIR.PPA.gPPAuWstart,28,{TRUE=0 FALSE=1},1,,,,,,,,,,
TLM,PPA.ECLSS.AIR.PPA,TLM,gPPA_CO2_plasma_uW_cmd,gPPA_CO2_plasma_uW_cmd,PPA.ECLSS.AIR.PPA.gPPA_CO2_plasma_uW_cmd,29,FLOAT,4,%,,,,,,,,,
TLM,PPA.ECLSS.AIR.PPA,TLM,gPPA_MeP_uW_cmd,gPPA_MeP_uW_cmd,PPA.ECLSS.AIR.PPA.gPPA_MeP_uW_cmd,30,FLOAT,4,%,,,,,,,,,
TLM,PPA.ECLSS.AIR.PPA,TLM,gPPA_Input_Power,gPPA_Input_Power,PPA.ECLSS.AIR.PPA.gPPA_Input_Power,31,FLOAT,4,W,,,,,,,,,
TLM,PPA.ECLSS.AIR.PPA,TLM,gPPA_Refl_Power,gPPA_Refl_Power,PPA.ECLSS.AIR.PPA.gPPA_Refl_Power,32,FLOAT,4,W,,,,,,,,,
TLM,PPA.ECLSS.AIR.PPA,TLM,gPPAstub1posn,gPPAstub1posn,PPA.ECLSS.AIR.PPA.gPPAstub1posn,33,INTEGER,4,,,,,,,,,,
TLM,PPA.ECLSS.AIR.PPA,TLM,gPPAstub2posn,gPPAstub2posn,PPA.ECLSS.AIR.PPA.gPPAstub2posn,34,INTEGER,4,,,,,,,,,,
TLM,PPA.ECLSS.AIR.PPA,TLM,gPPAstub3posn,gPPAstub3posn,PPA.ECLSS.AIR.PPA.gPPAstub3posn,35,INTEGER,4,,,,,,,,,,
TLM,PPA.ECLSS.AIR.PPA,TLM,gPPAuWabort,gPPAuWabort,PPA.ECLSS.AIR.PPA.gPPAuWabort,36,{TRUE=0 FALSE=1},1,,,,,,,,,,
TLM,PPA.ECLSS.AIR.PPA,TLM,gPPA_T120,gPPA_T120,PPA.ECLSS.AIR.PPA.gPPA_T120,37,FLOAT,4,C,,,,,,,,,
TLM,PPA.ECLSS.AIR.PPA,TLM,gPPA_T121,gPPA_T121,PPA.ECLSS.AIR.PPA.gPPA_T121,38,FLOAT,4,C,,,,,,,,,
TLM,PPA.ECLSS.AIR.PPA,TLM,gPPA_T122,gPPA_T122,PPA.ECLSS.AIR.PPA.gPPA_T122,39,FLOAT,4,C,,,,,,,,,
TLM,PPA.ECLSS.AIR.PPA,TLM,gPPA_T123,gPPA_T123,PPA.ECLSS.AIR.PPA.gPPA_T123,40,FLOAT,4,C,,,,,,,,,
TLM,PPA.ECLSS.AIR.PPA,TLM,gPPA_T124,gPPA_T124,PPA.ECLSS.AIR.PPA.gPPA_T124,41,FLOAT,4,C,,,,,,,,,
TLM,PPA.ECLSS.AIR.PPA,TLM,gPPA_T125,gPPA_T125,PPA.ECLSS.AIR.PPA.gPPA_T125,42,FLOAT,4,C,,,,,,,,,
TLM,PPA.ECLSS.AIR.PPA,TLM,gPPA_T126,gPPA_T126,PPA.ECLSS.AIR.PPA.gPPA_T126,43,FLOAT,4,C,,,,,,,,,
TLM,PPA.ECLSS.AIR.PPA,TLM,gPPA_LEL_Alarm_State,gPPA_LEL_Alarm_State,PPA.ECLSS.AIR.PPA.gPPA_LEL_Alarm_State,44,{TRUE=0 FALSE=1},1,,,,,,,,,,
TLM,PPA.ECLSS.AIR.PPA,TLM,gPPA_Over_Pressure_Temp_State,gPPA_Over_Pressure_Temp_State,PPA.ECLSS.AIR.PPA.gPPA_Over_Pressure_Temp_State,45,{TRUE=0 FALSE=1},1,,,,,,,,,,
TLM,PPA.ECLSS.AIR.PPA,TLM,CRA_SVC007,CRA_SVC007,PPA.ECLSS.AIR.PPA.CRA_SVC007,46,{OPEN=0 CLOSE=1},1,,,,,,,,,,
TLM,PPA.ECLSS.AIR.PPA,TLM,CRA_SVC102,CRA_SVC102,PPA.ECLSS.AIR.PPA.CRA_SVC102,47,{OPEN=0 CLOSE=1},1,,,,,,,,,,
TLM,PPA.ECLSS.AIR.PPA,TLM,CRA_SVO203,CRA_SVO203,PPA.ECLSS.AIR.PPA.CRA_SVO203,48,{OPEN=0 CLOSE=1},1,,,,,,,,,,
TLM,PPA.ECLSS.AIR.PPA,TLM,CRA_P002,CRA_P002,PPA.ECLSS.AIR.PPA.CRA_P002,49,FLOAT,4,psia,,,,,,,,,
TLM,PPA.ECLSS.AIR.PPA,TLM,CRA_P106,CRA_P106,PPA.ECLSS.AIR.PPA.CRA_P106,50,FLOAT,4,psia,,,,,,,,,
TLM,PPA.ECLSS.AIR.PPA,TLM,CRA_P206,CRA_P206,PPA.ECLSS.AIR.PPA.CRA_P206,51,FLOAT,4,psia,,,,,,,,,
TLM,PPA.ECLSS.AIR.PPA,TLM,CRA_MFC005_command,CRA_MFC005_command,PPA.ECLSS.AIR.PPA.CRA_MFC005_command,52,FLOAT,4,SLPM,,,,,,,,,
TLM,PPA.ECLSS.AIR.PPA,TLM,CRA_MFC005_flow,CRA_MFC005_flow,PPA.ECLSS.AIR.PPA.CRA_MFC005_flow,53,FLOAT,4,SLPM,,,,,,,,,
TLM,PPA.ECLSS.AIR.PPA,TLM,CRA_MFC103_command,CRA_MFC103_command,PPA.ECLSS.AIR.PPA.CRA_MFC103_command,54,FLOAT,4,SLPM,,,,,,,,,
TLM,PPA.ECLSS.AIR.PPA,TLM,CRA_MFC103_flow,CRA_MFC103_flow,PPA.ECLSS.AIR.PPA.CRA_MFC103_flow,55,FLOAT,4,SLPM,,,,,,,,,
TLM,PPA.ECLSS.AIR.PPA,TLM,CRA_Molar_Ratio,CRA_Molar_Ratio,PPA.ECLSS.AIR.PPA.CRA_Molar_Ratio,56,FLOAT,4,,,,,,,,,,
TLM,PPA.ECLSS.AIR.PPA,TLM,CRA_P006_1,CRA_P006_1,PPA.ECLSS.AIR.PPA.CRA_P006_1,57,FLOAT,4,psia,,,,,,,,,
TLM,PPA.ECLSS.AIR.PPA,TLM,CRA_P006_2,CRA_P006_2,PPA.ECLSS.AIR.PPA.CRA_P006_2,58,FLOAT,4,psia,,,,,,,,,
TLM,PPA.ECLSS.AIR.PPA,TLM,CRA_H402_1,CRA_H402_1,PPA.ECLSS.AIR.PPA.CRA_H402_1,59,{TRUE=0 FALSE=1},1,,,,,,,,,,
TLM,PPA.ECLSS.AIR.PPA,TLM,CRA_H402_2,CRA_H402_2,PPA.ECLSS.AIR.PPA.CRA_H402_2,60,{TRUE=0 FALSE=1},1,,,,,,,,,,
TLM,PPA.ECLSS.AIR.PPA,TLM,CRA_FAN503,CRA_FAN503,PPA.ECLSS.AIR.PPA.CRA_FAN503,61,{TRUE=0 FALSE=1},1,,,,,,,,,,
TLM,PPA.ECLSS.AIR.PPA,TLM,CRA_T403_1,CRA_T403_1,PPA.ECLSS.AIR.PPA.CRA_T403_1,62,FLOAT,4,deg C,,,,,,,,,
TLM,PPA.ECLSS.AIR.PPA,TLM,CRA_T403_2,CRA_T403_2,PPA.ECLSS.AIR.PPA.CRA_T403_2,63,FLOAT,4,deg C,,,,,,,,,
TLM,PPA.ECLSS.AIR.PPA,TLM,CRA_T404_1,CRA_T404_1,PPA.ECLSS.AIR.PPA.CRA_T404_1,64,FLOAT,4,deg C,,,,,,,,,
TLM,PPA.ECLSS.AIR.PPA,TLM,CRA_T404_2,CRA_T404_2,PPA.ECLSS.AIR.PPA.CRA_T404_2,65,FLOAT,4,deg C,,,,,,,,,
TLM,PPA.ECLSS.AIR.PPA,TLM,CRA_P601,CRA_P601,PPA.ECLSS.AIR.PPA.CRA_P601,66,FLOAT,4,psia,,,,,,,,,
TLM,PPA.ECLSS.AIR.PPA,TLM,CRA_DP405,CRA_DP405,PPA.ECLSS.AIR.PPA.CRA_DP405,67,FLOAT,4,inches H2O,,,,,,,,,
TLM,PPA.ECLSS.AIR.PPA,TLM,CRA_FAN502,CRA_FAN502,PPA.ECLSS.AIR.PPA.CRA_FAN502,68,{TRUE=0 FALSE=1},1,,,,,,,,,,
TLM,PPA.ECLSS.AIR.PPA,TLM,CRA_T407_1,CRA_T407_1,PPA.ECLSS.AIR.PPA.CRA_T407_1,69,FLOAT,4,deg C,,,,,,,,,
TLM,PPA.ECLSS.AIR.PPA,TLM,CRA_T407_2,CRA_T407_2,PPA.ECLSS.AIR.PPA.CRA_T407_2,70,FLOAT,4,deg C,,,,,,,,,
TLM,PPA.ECLSS.AIR.PPA,TLM,CRA_DP409,CRA_DP409,PPA.ECLSS.AIR.PPA.CRA_DP409,71,FLOAT,4,inches H2O,,,,,,,,,
TLM,PPA.ECLSS.AIR.PPA,TLM,CRA_PUMP301,CRA_PUMP301,PPA.ECLSS.AIR.PPA.CRA_PUMP301,72,{OPEN=0 CLOSE=1},1,,,,,,,,,,
TLM,PPA.ECLSS.AIR.PPA,TLM,CRA_SVO608,CRA_SVO608,PPA.ECLSS.AIR.PPA.CRA_SVO608,73,{OPEN=0 CLOSE=1},1,,,,,,,,,,
TLM,PPA.ECLSS.AIR.PPA,TLM,CRA_SVO604,CRA_SVO604,PPA.ECLSS.AIR.PPA.CRA_SVO604,74,{OPEN=0 CLOSE=1},1,,,,,,,,,,
TLM,PPA.ECLSS.AIR.PPA,TLM,CRA_SVO610,CRA_SVO610,PPA.ECLSS.AIR.PPA.CRA_SVO610,75,{OPEN=0 CLOSE=1},1,,,,,,,,,,
TLM,PPA.ECLSS.AIR.PPA,TLM,CRA_CG411,CRA_CG411,PPA.ECLSS.AIR.PPA.CRA_CG411,76,FLOAT,4,,,,,,,,,,
TLM,PPA.ECLSS.AIR.PPA,TLM,CRA_CG412,CRA_CG412,PPA.ECLSS.AIR.PPA.CRA_CG412,77,FLOAT,4,,,,,,,,,,
