PPA.ECLSS.AIR.PPA,TLM,2107
AMPS.MBSU.MBSU_1,TLM_DATA_OUT,2050
AMPS.MBSU.MBSU_1,CMD,6144
AMPS.MBSU.MBSU_2,TLM_DATA_OUT,2055
AMPS.MBSU.MBSU_2,CMD,6146
AMPS.PDU.PDU_1,TLM_DATA_OUT,2057
AMPS.PDU.PDU_1,CMD,6151
AMPS.PDU.PDU_2,TLM_DATA_OUT,2065
AMPS.PDU.PDU_2,CMD,6154
HIVE.F_F.AUDIO.AUDIO_1,TLM_DATA_OUT,2108
HIVE.F_F.AUDIO.AUDIO_1,CMD,6169
HIVE.HAB.AUDIO.AUDIO_1,TLM_DATA_OUT,2109
HIVE.HAB.AUDIO.AUDIO_1,CMD,6170
WATERRECOVERY.CDS.CDS,TLM_DATA_OUT,2077
WATERRECOVERY.CDS.CDS,CMD,6164
WATERRECOVERY.CDS.CONDUCTIVITY,TLM_DATA_OUT,2078
WATERRECOVERY.CDS.DERIVED,TLM_DATA_OUT,2079
WATERRECOVERY.CDS.FLOWSWITCH,TLM_DATA_OUT,2082
WATERRECOVERY.CDS.HEATPUMP,TLM_DATA_OUT,2087
WATERRECOVERY.CDS.PRESSURESENSOR,TLM_DATA_OUT,2089
WATERRECOVERY.CDS.SOLENOIDVALVE,TLM_DATA_OUT,2097
WATERRECOVERY.CDS.SOLENOIDVALVE,CMD,6165
WATERRECOVERY.CDS.THERMOCOUPLE,TLM_DATA_OUT,2098
WATERRECOVERY.CDS.WEIGHTSCALE,TLM_DATA_OUT,2099
WATERRECOVERY.FAC.FLOWMETER,TLM_DATA_OUT,2100
WATERRECOVERY.FAC.FLOWSWITCH,TLM_DATA_OUT,2101
WATERRECOVERY.FAC.PRESSURETRANSDUCER,TLM_DATA_OUT,2102
WATERRECOVERY.FAC.PUMP,TLM_DATA_OUT,2103
WATERRECOVERY.FAC.PUMP,CMD,6166
WATERRECOVERY.FAC.RELAY,TLM_DATA_OUT,2104
WATERRECOVERY.FAC.RELAY,CMD,6167
WATERRECOVERY.FAC.SOLENOIDVALVE,TLM_DATA_OUT,2105
WATERRECOVERY.FAC.SOLENOIDVALVE,CMD,6168
WATERRECOVERY.FAC.THERMOCOUPLE,TLM_DATA_OUT,2106
ASO.PPA.PPAHYDE,PPA_HyDE_Fault_Diag,2066
ASO.BATTERY.AD_IMS,IMS_STD_ORION_BATT_TLM,2067
ASO.BATTERY.AD_IMS,IMS_HK_TLM,2068
ASO.BATTERY.AD_IMS,IMS_OUT_DATA,2069
ASO.BATTERY.AD_IMS,CMD,6158
ASO.ACAWS.ACAWS_DE,OUT_IMPACT_REQ,2070
ASO.ACAWS.ACAWS_DE,HK_TLM ,2071
ASO.ACAWS.ACAWS_DE,OUT_DIAG,2072
ASO.ACAWS.ACAWS_DE,CMD,6159
ASO.ACAWS.ACAWS_FD,TEST_RESULTS,2073
ASO.ACAWS.ACAWS_FD,HK_TLM ,2074
ASO.ACAWS.ACAWS_FD,CMD,6162
ASO.ACAWS.ACAWS_SE,HK_TLM ,2075
ASO.ACAWS.ACAWS_SE,OUT_DATA,2076
ASO.ACAWS.ACAWS_SE,CMD,6163
