TLM,AMPS.MBSU.MBSU_1,TLM_DATA_OUT,MBSU_ID,MBSU_ID,AMPS.MBSU.MBSU_1.MBSU_ID,0,INTEGER,1,,,,,,,,,,
TLM,AMPS.MBSU.MBSU_1,TLM_DATA_OUT,MBSU_INPUT_SOURCESELECT_STATUS,MBSU_INPUT_SOURCESELECT_STATUS,AMPS.MBSU.MBSU_1.MBSU_INPUT_SOURCESELECT_STATUS,1,INTEGER,1,,,,,,,,,,
TLM,AMPS.MBSU.MBSU_1,TLM_DATA_OUT,MBSU_INPUTRELAY_FEEDBACK_STATUS,MBSU_INPUTRELAY_FEEDBACK_STATUS,AMPS.MBSU.MBSU_1.MBSU_INPUTRELAY_FEEDBACK_STATUS,2,INTEGER,1,,,,,,,,,,
TLM,AMPS.MBSU.MBSU_1,TLM_DATA_OUT,MBSU_INPUT_INVALIDBATTERY_ERROR,MBSU_INPUT_INVALIDBATTERY_ERROR,AMPS.MBSU.MBSU_1.MBSU_INPUT_INVALIDBATTERY_ERROR,3,{OK=0 ERROR=1},1,,,,,,,,,,
TLM,AMPS.MBSU.MBSU_1,TLM_DATA_OUT,MBSU_INPUT_INVALIDSOLARARRAY_ERROR,MBSU_INPUT_INVALIDSOLARARRAY_ERROR,AMPS.MBSU.MBSU_1.MBSU_INPUT_INVALIDSOLARARRAY_ERROR,4,{OK=0 ERROR=1},1,,,,,,,,,,
TLM,AMPS.MBSU.MBSU_1,TLM_DATA_OUT,MBSU_INPUT_INVALIDAUXMBSUINPUT_ERROR,MBSU_INPUT_INVALIDAUXMBSUINPUT_ERROR,AMPS.MBSU.MBSU_1.MBSU_INPUT_INVALIDAUXMBSUINPUT_ERROR,5,{OK=0 ERROR=1},1,,,,,,,,,,
TLM,AMPS.MBSU.MBSU_1,TLM_DATA_OUT,MBSU_INPUT_INVALIDAUXMBSUOUTPUT_ERROR,MBSU_INPUT_INVALIDAUXMBSUOUTPUT_ERROR,AMPS.MBSU.MBSU_1.MBSU_INPUT_INVALIDAUXMBSUOUTPUT_ERROR,6,{OK=0 ERROR=1},1,,,,,,,,,,
TLM,AMPS.MBSU.MBSU_1,TLM_DATA_OUT,MBSU_INPUT_RELAYSTATEMISMATCH_ERROR,MBSU_INPUT_RELAYSTATEMISMATCH_ERROR,AMPS.MBSU.MBSU_1.MBSU_INPUT_RELAYSTATEMISMATCH_ERROR,7,{OK=0 ERROR=1},1,,,,,,,,,,
TLM,AMPS.MBSU.MBSU_1,TLM_DATA_OUT,MBSU_INPUT_POSNEGSTATEMISMATCH_ERROR,MBSU_INPUT_POSNEGSTATEMISMATCH_ERROR,AMPS.MBSU.MBSU_1.MBSU_INPUT_POSNEGSTATEMISMATCH_ERROR,8,{OK=0 ERROR=1},1,,,,,,,,,,
TLM,AMPS.MBSU.MBSU_1,TLM_DATA_OUT,MBSU_BUSOUTSTATUS,MBSU_BUSOUTSTATUS,AMPS.MBSU.MBSU_1.MBSU_BUSOUTSTATUS,9,INTEGER,1,,,,,,,,,,
TLM,AMPS.MBSU.MBSU_1,TLM_DATA_OUT,MBSU_BUSOUTRELAYFEEDBACKSTATUS,MBSU_BUSOUTRELAYFEEDBACKSTATUS,AMPS.MBSU.MBSU_1.MBSU_BUSOUTRELAYFEEDBACKSTATUS,10,INTEGER,1,,,,,,,,,,
TLM,AMPS.MBSU.MBSU_1,TLM_DATA_OUT,MBSU_BUSOUTRELAYSTATEMISMATCHERROR,MBSU_BUSOUTRELAYSTATEMISMATCHERROR,AMPS.MBSU.MBSU_1.MBSU_BUSOUTRELAYSTATEMISMATCHERROR,11,{OK=0 ERROR=1},1,,,,,,,,,,
TLM,AMPS.MBSU.MBSU_1,TLM_DATA_OUT,MBSU_BUSOUTPOSNEGSTATEMISMATCHERROR,MBSU_BUSOUTPOSNEGSTATEMISMATCHERROR,AMPS.MBSU.MBSU_1.MBSU_BUSOUTPOSNEGSTATEMISMATCHERROR,12,{OK=0 ERROR=1},1,,,,,,,,,,
TLM,AMPS.MBSU.MBSU_1,TLM_DATA_OUT,MBSU_INPUTRELAYTRIPSTATE,MBSU_INPUTRELAYTRIPSTATE,AMPS.MBSU.MBSU_1.MBSU_INPUTRELAYTRIPSTATE,13,INTEGER,1,,,,,,,,,,
TLM,AMPS.MBSU.MBSU_1,TLM_DATA_OUT,MBSU_OUTPUTRELAYTRIPSTATE,MBSU_OUTPUTRELAYTRIPSTATE,AMPS.MBSU.MBSU_1.MBSU_OUTPUTRELAYTRIPSTATE,14,INTEGER,1,,,,,,,,,,
TLM,AMPS.MBSU.MBSU_1,TLM_DATA_OUT,MBSU_SOLAR_ARRAY_INPUT_CURRENT,MBSU_SOLAR_ARRAY_INPUT_CURRENT,AMPS.MBSU.MBSU_1.MBSU_SOLAR_ARRAY_INPUT_CURRENT,15,FLOAT,8,A,,,,,,,,,
TLM,AMPS.MBSU.MBSU_1,TLM_DATA_OUT,MBSU_BATTERY_BIDIRECTIONAL_CURRENT,MBSU_BATTERY_BIDIRECTIONAL_CURRENT,AMPS.MBSU.MBSU_1.MBSU_BATTERY_BIDIRECTIONAL_CURRENT,16,FLOAT,8,A,,,,,,,,,
TLM,AMPS.MBSU.MBSU_1,TLM_DATA_OUT,MBSU_AUXMBSU_BIDIRECTIONAL_CURRENT,MBSU_AUXMBSU_BIDIRECTIONAL_CURRENT,AMPS.MBSU.MBSU_1.MBSU_AUXMBSU_BIDIRECTIONAL_CURRENT,17,FLOAT,8,A,,,,,,,,,
TLM,AMPS.MBSU.MBSU_1,TLM_DATA_OUT,MBSU_AUXMBSU_OUTPUT_VOLTAGE,MBSU_AUXMBSU_OUTPUT_VOLTAGE,AMPS.MBSU.MBSU_1.MBSU_AUXMBSU_OUTPUT_VOLTAGE,18,FLOAT,8,V,,,,,,,,,
TLM,AMPS.MBSU.MBSU_1,TLM_DATA_OUT,MBSU_HKPS_VOLTAGE,MBSU_HKPS_VOLTAGE,AMPS.MBSU.MBSU_1.MBSU_HKPS_VOLTAGE,19,FLOAT,8,V,,,,,,,,,
TLM,AMPS.MBSU.MBSU_1,TLM_DATA_OUT,MBSU_OUTPUT_CURRENT_1,MBSU_OUTPUT_CURRENT_1,AMPS.MBSU.MBSU_1.MBSU_OUTPUT_CURRENT_1,20,FLOAT,8,A,,,,,,,,,
TLM,AMPS.MBSU.MBSU_1,TLM_DATA_OUT,MBSU_OUTPUT_CURRENT_2,MBSU_OUTPUT_CURRENT_2,AMPS.MBSU.MBSU_1.MBSU_OUTPUT_CURRENT_2,21,FLOAT,8,A,,,,,,,,,
TLM,AMPS.MBSU.MBSU_1,TLM_DATA_OUT,MBSU_OUTPUT_CURRENT_3,MBSU_OUTPUT_CURRENT_3,AMPS.MBSU.MBSU_1.MBSU_OUTPUT_CURRENT_3,22,FLOAT,8,A,,,,,,,,,
TLM,AMPS.MBSU.MBSU_1,TLM_DATA_OUT,MBSU_OUTPUT_CURRENT_4,MBSU_OUTPUT_CURRENT_4,AMPS.MBSU.MBSU_1.MBSU_OUTPUT_CURRENT_4,23,FLOAT,8,A,,,,,,,,,
TLM,AMPS.MBSU.MBSU_1,TLM_DATA_OUT,MBSU_SARVOLTAGE,MBSU_SARVOLTAGE,AMPS.MBSU.MBSU_1.MBSU_SARVOLTAGE,24,FLOAT,8,V,,,,,,,,,
TLM,AMPS.MBSU.MBSU_1,TLM_DATA_OUT,MBSU_BATTVOLTAGE,MBSU_BATTVOLTAGE,AMPS.MBSU.MBSU_1.MBSU_BATTVOLTAGE,25,FLOAT,8,V,,,,,,,,,
TLM,AMPS.MBSU.MBSU_1,TLM_DATA_OUT,MBSU_INNERVOLTAGE,MBSU_INNERVOLTAGE,AMPS.MBSU.MBSU_1.MBSU_INNERVOLTAGE,26,FLOAT,8,V,,,,,,,,,
TLM,AMPS.MBSU.MBSU_1,TLM_DATA_OUT,MBSU_SARCURRTRIPSP,MBSU_SARCURRTRIPSP,AMPS.MBSU.MBSU_1.MBSU_SARCURRTRIPSP,27,FLOAT,8,A,,,,,,,,,
TLM,AMPS.MBSU.MBSU_1,TLM_DATA_OUT,MBSU_BATTCURRTRIPSP,MBSU_BATTCURRTRIPSP,AMPS.MBSU.MBSU_1.MBSU_BATTCURRTRIPSP,28,FLOAT,8,A,,,,,,,,,
TLM,AMPS.MBSU.MBSU_1,TLM_DATA_OUT,MBSU_AUXCURRTRIPSP,MBSU_AUXCURRTRIPSP,AMPS.MBSU.MBSU_1.MBSU_AUXCURRTRIPSP,29,FLOAT,8,A,,,,,,,,,
TLM,AMPS.MBSU.MBSU_1,TLM_DATA_OUT,MBSU_OUTPUT1CURRTRIPSP,MBSU_OUTPUT1CURRTRIPSP,AMPS.MBSU.MBSU_1.MBSU_OUTPUT1CURRTRIPSP,30,FLOAT,8,A,,,,,,,,,
TLM,AMPS.MBSU.MBSU_1,TLM_DATA_OUT,MBSU_OUTPUT2CURRTRIPSP,MBSU_OUTPUT2CURRTRIPSP,AMPS.MBSU.MBSU_1.MBSU_OUTPUT2CURRTRIPSP,31,FLOAT,8,A,,,,,,,,,
TLM,AMPS.MBSU.MBSU_1,TLM_DATA_OUT,MBSU_OUTPUT3CURRTRIPSP,MBSU_OUTPUT3CURRTRIPSP,AMPS.MBSU.MBSU_1.MBSU_OUTPUT3CURRTRIPSP,32,FLOAT,8,A,,,,,,,,,
TLM,AMPS.MBSU.MBSU_1,TLM_DATA_OUT,MBSU_OUTPUT4CURRTRIPSP,MBSU_OUTPUT4CURRTRIPSP,AMPS.MBSU.MBSU_1.MBSU_OUTPUT4CURRTRIPSP,33,FLOAT,8,A,,,,,,,,,
CMD,AMPS.MBSU.MBSU_1,CMD,SET_INPUT_SOURCE_SELECT,SET_INPUT_SOURCE_SELECT,AMPS.MBSU.MBSU_1.SET_INPUT_SOURCE_SELECT,0,SOLARARRAY_POS,{OFF=0 ON=1},1,BATTERY_POS,{OFF=0 ON=1},1,AUXILARY_POS,{OFF=0 ON=1},1,,,
CMD,AMPS.MBSU.MBSU_1,CMD,SET_MBSU_OUTPUT_CHANNEL_STATE,SET_MBSU_OUTPUT_CHANNEL_STATE,AMPS.MBSU.MBSU_1.SET_MBSU_OUTPUT_CHANNEL_STATE,1,OUTPUTCHANNEL_1_POS,{OFF=0 ON=1},1,OUTPUTCHANNEL_2_POS,{OFF=0 ON=1},1,OUTPUTCHANNEL_3_POS,{OFF=0 ON=1},1,,,
CMD,AMPS.MBSU.MBSU_1,CMD,SET_MBSU_Input_Curr_Limit,SET_MBSU_Input_Curr_Limit,AMPS.MBSU.MBSU_1.SET_MBSU_Input_Curr_Limit,2,Input_Curr_Limit_SP,FLOAT,8,UpdateEnableMask,{DISABLE=0 ENABLE=1},1,,,,,,
CMD,AMPS.MBSU.MBSU_1,CMD,SET_MBSU_Output_Curr_Limit,SET_MBSU_Output_Curr_Limit,AMPS.MBSU.MBSU_1.SET_MBSU_Output_Curr_Limit,3,Output_Curr_Limit_SP,FLOAT,8,UpdateEnableMask,{DISABLE=0 ENABLE=1},1,,,,,,
CMD,AMPS.MBSU.MBSU_1,CMD,CLEAR_MBSU_Input_Curr_Trip,CLEAR_MBSU_Input_Curr_Trip,AMPS.MBSU.MBSU_1.CLEAR_MBSU_Input_Curr_Trip,4,ClearTripMask,{DISABLE=0 ENABLE=1},1,,,,,,,,,
CMD,AMPS.MBSU.MBSU_1,CMD,CLEAR_MBSU_Output_Curr_Trip,CLEAR_MBSU_Output_Curr_Trip,AMPS.MBSU.MBSU_1.CLEAR_MBSU_Output_Curr_Trip,5,ClearTripMask,{DISABLE=0 ENABLE=1},1,,,,,,,,,
CMD,AMPS.MBSU.MBSU_1,CMD,SET_MBSU_Relay_CHANNEL_OPEN,SET_MBSU_Relay_CHANNEL_OPEN,AMPS.MBSU.MBSU_1.SET_MBSU_Relay_CHANNEL_OPEN,6,FORCERelayOFF,INTEGER,1,RelayCHANNELMASK,{DISABLE=0 ENABLE=1},1,,,,,,
TLM,AMPS.MBSU.MBSU_2,TLM_DATA_OUT,MBSU_ID,MBSU_ID,AMPS.MBSU.MBSU_2.MBSU_ID,0,INTEGER,1,,,,,,,,,,
TLM,AMPS.MBSU.MBSU_2,TLM_DATA_OUT,MBSU_INPUT_SOURCESELECT_STATUS,MBSU_INPUT_SOURCESELECT_STATUS,AMPS.MBSU.MBSU_2.MBSU_INPUT_SOURCESELECT_STATUS,1,INTEGER,1,,,,,,,,,,
TLM,AMPS.MBSU.MBSU_2,TLM_DATA_OUT,MBSU_INPUTRELAY_FEEDBACK_STATUS,MBSU_INPUTRELAY_FEEDBACK_STATUS,AMPS.MBSU.MBSU_2.MBSU_INPUTRELAY_FEEDBACK_STATUS,2,INTEGER,1,,,,,,,,,,
TLM,AMPS.MBSU.MBSU_2,TLM_DATA_OUT,MBSU_INPUT_INVALIDBATTERY_ERROR,MBSU_INPUT_INVALIDBATTERY_ERROR,AMPS.MBSU.MBSU_2.MBSU_INPUT_INVALIDBATTERY_ERROR,3,{OK=0 ERROR=1},1,,,,,,,,,,
TLM,AMPS.MBSU.MBSU_2,TLM_DATA_OUT,MBSU_INPUT_INVALIDSOLARARRAY_ERROR,MBSU_INPUT_INVALIDSOLARARRAY_ERROR,AMPS.MBSU.MBSU_2.MBSU_INPUT_INVALIDSOLARARRAY_ERROR,4,{OK=0 ERROR=1},1,,,,,,,,,,
TLM,AMPS.MBSU.MBSU_2,TLM_DATA_OUT,MBSU_INPUT_INVALIDAUXMBSUINPUT_ERROR,MBSU_INPUT_INVALIDAUXMBSUINPUT_ERROR,AMPS.MBSU.MBSU_2.MBSU_INPUT_INVALIDAUXMBSUINPUT_ERROR,5,{OK=0 ERROR=1},1,,,,,,,,,,
TLM,AMPS.MBSU.MBSU_2,TLM_DATA_OUT,MBSU_INPUT_INVALIDAUXMBSUOUTPUT_ERROR,MBSU_INPUT_INVALIDAUXMBSUOUTPUT_ERROR,AMPS.MBSU.MBSU_2.MBSU_INPUT_INVALIDAUXMBSUOUTPUT_ERROR,6,{OK=0 ERROR=1},1,,,,,,,,,,
TLM,AMPS.MBSU.MBSU_2,TLM_DATA_OUT,MBSU_INPUT_RELAYSTATEMISMATCH_ERROR,MBSU_INPUT_RELAYSTATEMISMATCH_ERROR,AMPS.MBSU.MBSU_2.MBSU_INPUT_RELAYSTATEMISMATCH_ERROR,7,{OK=0 ERROR=1},1,,,,,,,,,,
TLM,AMPS.MBSU.MBSU_2,TLM_DATA_OUT,MBSU_INPUT_POSNEGSTATEMISMATCH_ERROR,MBSU_INPUT_POSNEGSTATEMISMATCH_ERROR,AMPS.MBSU.MBSU_2.MBSU_INPUT_POSNEGSTATEMISMATCH_ERROR,8,{OK=0 ERROR=1},1,,,,,,,,,,
TLM,AMPS.MBSU.MBSU_2,TLM_DATA_OUT,MBSU_BUSOUTSTATUS,MBSU_BUSOUTSTATUS,AMPS.MBSU.MBSU_2.MBSU_BUSOUTSTATUS,9,INTEGER,1,,,,,,,,,,
TLM,AMPS.MBSU.MBSU_2,TLM_DATA_OUT,MBSU_BUSOUTRELAYFEEDBACKSTATUS,MBSU_BUSOUTRELAYFEEDBACKSTATUS,AMPS.MBSU.MBSU_2.MBSU_BUSOUTRELAYFEEDBACKSTATUS,10,INTEGER,1,,,,,,,,,,
TLM,AMPS.MBSU.MBSU_2,TLM_DATA_OUT,MBSU_BUSOUTRELAYSTATEMISMATCHERROR,MBSU_BUSOUTRELAYSTATEMISMATCHERROR,AMPS.MBSU.MBSU_2.MBSU_BUSOUTRELAYSTATEMISMATCHERROR,11,{OK=0 ERROR=1},1,,,,,,,,,,
TLM,AMPS.MBSU.MBSU_2,TLM_DATA_OUT,MBSU_BUSOUTPOSNEGSTATEMISMATCHERROR,MBSU_BUSOUTPOSNEGSTATEMISMATCHERROR,AMPS.MBSU.MBSU_2.MBSU_BUSOUTPOSNEGSTATEMISMATCHERROR,12,{OK=0 ERROR=1},1,,,,,,,,,,
TLM,AMPS.MBSU.MBSU_2,TLM_DATA_OUT,MBSU_INPUTRELAYTRIPSTATE,MBSU_INPUTRELAYTRIPSTATE,AMPS.MBSU.MBSU_2.MBSU_INPUTRELAYTRIPSTATE,13,INTEGER,1,,,,,,,,,,
TLM,AMPS.MBSU.MBSU_2,TLM_DATA_OUT,MBSU_OUTPUTRELAYTRIPSTATE,MBSU_OUTPUTRELAYTRIPSTATE,AMPS.MBSU.MBSU_2.MBSU_OUTPUTRELAYTRIPSTATE,14,INTEGER,1,,,,,,,,,,
TLM,AMPS.MBSU.MBSU_2,TLM_DATA_OUT,MBSU_SOLAR_ARRAY_INPUT_CURRENT,MBSU_SOLAR_ARRAY_INPUT_CURRENT,AMPS.MBSU.MBSU_2.MBSU_SOLAR_ARRAY_INPUT_CURRENT,15,FLOAT,8,A,,,,,,,,,
TLM,AMPS.MBSU.MBSU_2,TLM_DATA_OUT,MBSU_BATTERY_BIDIRECTIONAL_CURRENT,MBSU_BATTERY_BIDIRECTIONAL_CURRENT,AMPS.MBSU.MBSU_2.MBSU_BATTERY_BIDIRECTIONAL_CURRENT,16,FLOAT,8,A,,,,,,,,,
TLM,AMPS.MBSU.MBSU_2,TLM_DATA_OUT,MBSU_AUXMBSU_BIDIRECTIONAL_CURRENT,MBSU_AUXMBSU_BIDIRECTIONAL_CURRENT,AMPS.MBSU.MBSU_2.MBSU_AUXMBSU_BIDIRECTIONAL_CURRENT,17,FLOAT,8,A,,,,,,,,,
TLM,AMPS.MBSU.MBSU_2,TLM_DATA_OUT,MBSU_AUXMBSU_OUTPUT_VOLTAGE,MBSU_AUXMBSU_OUTPUT_VOLTAGE,AMPS.MBSU.MBSU_2.MBSU_AUXMBSU_OUTPUT_VOLTAGE,18,FLOAT,8,V,,,,,,,,,
TLM,AMPS.MBSU.MBSU_2,TLM_DATA_OUT,MBSU_HKPS_VOLTAGE,MBSU_HKPS_VOLTAGE,AMPS.MBSU.MBSU_2.MBSU_HKPS_VOLTAGE,19,FLOAT,8,V,,,,,,,,,
TLM,AMPS.MBSU.MBSU_2,TLM_DATA_OUT,MBSU_OUTPUT_CURRENT_1,MBSU_OUTPUT_CURRENT_1,AMPS.MBSU.MBSU_2.MBSU_OUTPUT_CURRENT_1,20,FLOAT,8,A,,,,,,,,,
TLM,AMPS.MBSU.MBSU_2,TLM_DATA_OUT,MBSU_OUTPUT_CURRENT_2,MBSU_OUTPUT_CURRENT_2,AMPS.MBSU.MBSU_2.MBSU_OUTPUT_CURRENT_2,21,FLOAT,8,A,,,,,,,,,
TLM,AMPS.MBSU.MBSU_2,TLM_DATA_OUT,MBSU_OUTPUT_CURRENT_3,MBSU_OUTPUT_CURRENT_3,AMPS.MBSU.MBSU_2.MBSU_OUTPUT_CURRENT_3,22,FLOAT,8,A,,,,,,,,,
TLM,AMPS.MBSU.MBSU_2,TLM_DATA_OUT,MBSU_OUTPUT_CURRENT_4,MBSU_OUTPUT_CURRENT_4,AMPS.MBSU.MBSU_2.MBSU_OUTPUT_CURRENT_4,23,FLOAT,8,A,,,,,,,,,
TLM,AMPS.MBSU.MBSU_2,TLM_DATA_OUT,MBSU_SARVOLTAGE,MBSU_SARVOLTAGE,AMPS.MBSU.MBSU_2.MBSU_SARVOLTAGE,24,FLOAT,8,V,,,,,,,,,
TLM,AMPS.MBSU.MBSU_2,TLM_DATA_OUT,MBSU_BATTVOLTAGE,MBSU_BATTVOLTAGE,AMPS.MBSU.MBSU_2.MBSU_BATTVOLTAGE,25,FLOAT,8,V,,,,,,,,,
TLM,AMPS.MBSU.MBSU_2,TLM_DATA_OUT,MBSU_INNERVOLTAGE,MBSU_INNERVOLTAGE,AMPS.MBSU.MBSU_2.MBSU_INNERVOLTAGE,26,FLOAT,8,V,,,,,,,,,
TLM,AMPS.MBSU.MBSU_2,TLM_DATA_OUT,MBSU_SARCURRTRIPSP,MBSU_SARCURRTRIPSP,AMPS.MBSU.MBSU_2.MBSU_SARCURRTRIPSP,27,FLOAT,8,A,,,,,,,,,
TLM,AMPS.MBSU.MBSU_2,TLM_DATA_OUT,MBSU_BATTCURRTRIPSP,MBSU_BATTCURRTRIPSP,AMPS.MBSU.MBSU_2.MBSU_BATTCURRTRIPSP,28,FLOAT,8,A,,,,,,,,,
TLM,AMPS.MBSU.MBSU_2,TLM_DATA_OUT,MBSU_AUXCURRTRIPSP,MBSU_AUXCURRTRIPSP,AMPS.MBSU.MBSU_2.MBSU_AUXCURRTRIPSP,29,FLOAT,8,A,,,,,,,,,
TLM,AMPS.MBSU.MBSU_2,TLM_DATA_OUT,MBSU_OUTPUT1CURRTRIPSP,MBSU_OUTPUT1CURRTRIPSP,AMPS.MBSU.MBSU_2.MBSU_OUTPUT1CURRTRIPSP,30,FLOAT,8,A,,,,,,,,,
TLM,AMPS.MBSU.MBSU_2,TLM_DATA_OUT,MBSU_OUTPUT2CURRTRIPSP,MBSU_OUTPUT2CURRTRIPSP,AMPS.MBSU.MBSU_2.MBSU_OUTPUT2CURRTRIPSP,31,FLOAT,8,A,,,,,,,,,
TLM,AMPS.MBSU.MBSU_2,TLM_DATA_OUT,MBSU_OUTPUT3CURRTRIPSP,MBSU_OUTPUT3CURRTRIPSP,AMPS.MBSU.MBSU_2.MBSU_OUTPUT3CURRTRIPSP,32,FLOAT,8,A,,,,,,,,,
TLM,AMPS.MBSU.MBSU_2,TLM_DATA_OUT,MBSU_OUTPUT4CURRTRIPSP,MBSU_OUTPUT4CURRTRIPSP,AMPS.MBSU.MBSU_2.MBSU_OUTPUT4CURRTRIPSP,33,FLOAT,8,A,,,,,,,,,
CMD,AMPS.MBSU.MBSU_2,CMD,SET_INPUT_SOURCE_SELECT,SET_INPUT_SOURCE_SELECT,AMPS.MBSU.MBSU_2.SET_INPUT_SOURCE_SELECT,0,SOLARARRAY_POS,{OFF=0 ON=1},1,BATTERY_POS,{OFF=0 ON=1},1,AUXILARY_POS,{OFF=0 ON=1},1,,,
CMD,AMPS.MBSU.MBSU_2,CMD,SET_MBSU_OUTPUT_CHANNEL_STATE,SET_MBSU_OUTPUT_CHANNEL_STATE,AMPS.MBSU.MBSU_2.SET_MBSU_OUTPUT_CHANNEL_STATE,1,OUTPUTCHANNEL_1_POS,{OFF=0 ON=1},1,OUTPUTCHANNEL_2_POS,{OFF=0 ON=1},1,OUTPUTCHANNEL_3_POS,{OFF=0 ON=1},1,,,
CMD,AMPS.MBSU.MBSU_2,CMD,SET_MBSU_Input_Curr_Limit,SET_MBSU_Input_Curr_Limit,AMPS.MBSU.MBSU_2.SET_MBSU_Input_Curr_Limit,2,Input_Curr_Limit_SP,FLOAT,8,UpdateEnableMask,{DISABLE=0 ENABLE=1},1,,,,,,
CMD,AMPS.MBSU.MBSU_2,CMD,SET_MBSU_Output_Curr_Limit,SET_MBSU_Output_Curr_Limit,AMPS.MBSU.MBSU_2.SET_MBSU_Output_Curr_Limit,3,Output_Curr_Limit_SP,FLOAT,8,UpdateEnableMask,{DISABLE=0 ENABLE=1},1,,,,,,
CMD,AMPS.MBSU.MBSU_2,CMD,CLEAR_MBSU_Input_Curr_Trip,CLEAR_MBSU_Input_Curr_Trip,AMPS.MBSU.MBSU_2.CLEAR_MBSU_Input_Curr_Trip,4,ClearTripMask,{DISABLE=0 ENABLE=1},1,,,,,,,,,
CMD,AMPS.MBSU.MBSU_2,CMD,CLEAR_MBSU_Output_Curr_Trip,CLEAR_MBSU_Output_Curr_Trip,AMPS.MBSU.MBSU_2.CLEAR_MBSU_Output_Curr_Trip,5,ClearTripMask,{DISABLE=0 ENABLE=1},1,,,,,,,,,
CMD,AMPS.MBSU.MBSU_2,CMD,SET_MBSU_Relay_CHANNEL_OPEN,SET_MBSU_Relay_CHANNEL_OPEN,AMPS.MBSU.MBSU_2.SET_MBSU_Relay_CHANNEL_OPEN,6,FORCERelayOFF,INTEGER,1,RelayCHANNELMASK,{DISABLE=0 ENABLE=1},1,,,,,,
TLM,AMPS.PDU.PDU_1,TLM_DATA_OUT,PDU_UNITID,PDU_UNITID,AMPS.PDU.PDU_1.PDU_UNITID,0,INTEGER,1,,,,,,,,,,
TLM,AMPS.PDU.PDU_1,TLM_DATA_OUT,PDU_INPUTBUSSTATUS,PDU_INPUTBUSSTATUS,AMPS.PDU.PDU_1.PDU_INPUTBUSSTATUS,1,INTEGER,1,,,,,,,,,,
TLM,AMPS.PDU.PDU_1,TLM_DATA_OUT,PDU_INPUTRELAYFEEDBACK,PDU_INPUTRELAYFEEDBACK,AMPS.PDU.PDU_1.PDU_INPUTRELAYFEEDBACK,2,INTEGER,1,,,,,,,,,,
TLM,AMPS.PDU.PDU_1,TLM_DATA_OUT,PDU_INVALIDCOMMANDERROR,PDU_INVALIDCOMMANDERROR,AMPS.PDU.PDU_1.PDU_INVALIDCOMMANDERROR,3,{OK=0 ERROR=1},1,,,,,,,,,,
TLM,AMPS.PDU.PDU_1,TLM_DATA_OUT,PDU_INPUTFEEDBACKSTATEMISMATCHERROR,PDU_INPUTFEEDBACKSTATEMISMATCHERROR,AMPS.PDU.PDU_1.PDU_INPUTFEEDBACKSTATEMISMATCHERROR,4,{OK=0 ERROR=1},1,,,,,,,,,,
TLM,AMPS.PDU.PDU_1,TLM_DATA_OUT,PDU_POSNEGMISMATCHERROR,PDU_POSNEGMISMATCHERROR,AMPS.PDU.PDU_1.PDU_POSNEGMISMATCHERROR,5,{OK=0 ERROR=1},1,,,,,,,,,,
TLM,AMPS.PDU.PDU_1,TLM_DATA_OUT,PDU_RPCCHANNELSTATUS,PDU_RPCCHANNELSTATUS,AMPS.PDU.PDU_1.PDU_RPCCHANNELSTATUS,6,INTEGER,1,,,,,,,,,,
TLM,AMPS.PDU.PDU_1,TLM_DATA_OUT,PDU_RPCTRIPSTATUS,PDU_RPCTRIPSTATUS,AMPS.PDU.PDU_1.PDU_RPCTRIPSTATUS,7,INTEGER,1,,,,,,,,,,
TLM,AMPS.PDU.PDU_1,TLM_DATA_OUT,PDU_RPCOUTSTATUS ,PDU_RPCOUTSTATUS ,AMPS.PDU.PDU_1.PDU_RPCOUTSTATUS ,8,INTEGER,1,,,,,,,,,,
TLM,AMPS.PDU.PDU_1,TLM_DATA_OUT,PDU_RPCMISMATCHERROR,PDU_RPCMISMATCHERROR,AMPS.PDU.PDU_1.PDU_RPCMISMATCHERROR,9,{OK=0 ERROR=1},1,,,,,,,,,,
TLM,AMPS.PDU.PDU_1,TLM_DATA_OUT,PDU_CURRENTBUS1,PDU_CURRENTBUS1,AMPS.PDU.PDU_1.PDU_CURRENTBUS1,10,FLOAT,8,A,,,,,,,,,
TLM,AMPS.PDU.PDU_1,TLM_DATA_OUT,PDU_CURRENTBUS2,PDU_CURRENTBUS2,AMPS.PDU.PDU_1.PDU_CURRENTBUS2,11,FLOAT,8,A,,,,,,,,,
TLM,AMPS.PDU.PDU_1,TLM_DATA_OUT,PDU_CURRENTINTERNALBUS,PDU_CURRENTINTERNALBUS,AMPS.PDU.PDU_1.PDU_CURRENTINTERNALBUS,12,FLOAT,8,A,,,,,,,,,
TLM,AMPS.PDU.PDU_1,TLM_DATA_OUT,PDU_VOLTAGEBUS1,PDU_VOLTAGEBUS1,AMPS.PDU.PDU_1.PDU_VOLTAGEBUS1,13,FLOAT,8,V,,,,,,,,,
TLM,AMPS.PDU.PDU_1,TLM_DATA_OUT,PDU_VOLTAGEBUS2,PDU_VOLTAGEBUS2,AMPS.PDU.PDU_1.PDU_VOLTAGEBUS2,14,FLOAT,8,V,,,,,,,,,
TLM,AMPS.PDU.PDU_1,TLM_DATA_OUT,PDU_VOLTAGEINTERNAL,PDU_VOLTAGEINTERNAL,AMPS.PDU.PDU_1.PDU_VOLTAGEINTERNAL,15,FLOAT,8,V,,,,,,,,,
TLM,AMPS.PDU.PDU_1,TLM_DATA_OUT,PDU_VOLTAGEHKPG,PDU_VOLTAGEHKPG,AMPS.PDU.PDU_1.PDU_VOLTAGEHKPG,16,FLOAT,8,V,,,,,,,,,
TLM,AMPS.PDU.PDU_1,TLM_DATA_OUT,PDU_CURRENTRPC1,PDU_CURRENTRPC1,AMPS.PDU.PDU_1.PDU_CURRENTRPC1,17,FLOAT,8,A,,,,,,,,,
TLM,AMPS.PDU.PDU_1,TLM_DATA_OUT,PDU_CURRENTRPC2,PDU_CURRENTRPC2,AMPS.PDU.PDU_1.PDU_CURRENTRPC2,18,FLOAT,8,A,,,,,,,,,
TLM,AMPS.PDU.PDU_1,TLM_DATA_OUT,PDU_CURRENTRPC3,PDU_CURRENTRPC3,AMPS.PDU.PDU_1.PDU_CURRENTRPC3,19,FLOAT,8,A,,,,,,,,,
TLM,AMPS.PDU.PDU_1,TLM_DATA_OUT,PDU_CURRENTRPC4,PDU_CURRENTRPC4,AMPS.PDU.PDU_1.PDU_CURRENTRPC4,20,FLOAT,8,A,,,,,,,,,
TLM,AMPS.PDU.PDU_1,TLM_DATA_OUT,PDU_CURRENTRPC5,PDU_CURRENTRPC5,AMPS.PDU.PDU_1.PDU_CURRENTRPC5,21,FLOAT,8,A,,,,,,,,,
TLM,AMPS.PDU.PDU_1,TLM_DATA_OUT,PDU_CURRENTRPC6,PDU_CURRENTRPC6,AMPS.PDU.PDU_1.PDU_CURRENTRPC6,22,FLOAT,8,A,,,,,,,,,
TLM,AMPS.PDU.PDU_1,TLM_DATA_OUT,PDU_CURRENTRPC7,PDU_CURRENTRPC7,AMPS.PDU.PDU_1.PDU_CURRENTRPC7,23,FLOAT,8,A,,,,,,,,,
TLM,AMPS.PDU.PDU_1,TLM_DATA_OUT,PDU_CURRENTRPC8,PDU_CURRENTRPC8,AMPS.PDU.PDU_1.PDU_CURRENTRPC8,24,FLOAT,8,A,,,,,,,,,
CMD,AMPS.PDU.PDU_1,CMD,SET_PDU_INPUT_BUS_SELECT,SET_PDU_INPUT_BUS_SELECT,AMPS.PDU.PDU_1.SET_PDU_INPUT_BUS_SELECT,0,INPUT_BUS_1,{OFF=0 ON=1},1,INPUT_BUS_2,{OFF=0 ON=1},1,,,,,,
CMD,AMPS.PDU.PDU_1,CMD,SET_PDU_RPC_CHANNEL_STATE,SET_PDU_RPC_CHANNEL_STATE,AMPS.PDU.PDU_1.SET_PDU_RPC_CHANNEL_STATE,1,RPCONOFFSTATE,INTEGER,1,RPCCHANNELMASK,{DISABLE=0 ENABLE=1},1,,,,,,
CMD,AMPS.PDU.PDU_1,CMD,SET_PDU_RPC_CHANNEL_OPEN,SET_PDU_RPC_CHANNEL_OPEN,AMPS.PDU.PDU_1.SET_PDU_RPC_CHANNEL_OPEN,2,FORCERPCOFF,INTEGER,1,RPCCHANNELMASK,{DISABLE=0 ENABLE=1},1,,,,,,
TLM,AMPS.PDU.PDU_2,TLM_DATA_OUT,PDU_UNITID,PDU_UNITID,AMPS.PDU.PDU_2.PDU_UNITID,0,INTEGER,1,,,,,,,,,,
TLM,AMPS.PDU.PDU_2,TLM_DATA_OUT,PDU_INPUTBUSSTATUS,PDU_INPUTBUSSTATUS,AMPS.PDU.PDU_2.PDU_INPUTBUSSTATUS,1,INTEGER,1,,,,,,,,,,
TLM,AMPS.PDU.PDU_2,TLM_DATA_OUT,PDU_INPUTRELAYFEEDBACK,PDU_INPUTRELAYFEEDBACK,AMPS.PDU.PDU_2.PDU_INPUTRELAYFEEDBACK,2,INTEGER,1,,,,,,,,,,
TLM,AMPS.PDU.PDU_2,TLM_DATA_OUT,PDU_INVALIDCOMMANDERROR,PDU_INVALIDCOMMANDERROR,AMPS.PDU.PDU_2.PDU_INVALIDCOMMANDERROR,3,{OK=0 ERROR=1},1,,,,,,,,,,
TLM,AMPS.PDU.PDU_2,TLM_DATA_OUT,PDU_INPUTFEEDBACKSTATEMISMATCHERROR,PDU_INPUTFEEDBACKSTATEMISMATCHERROR,AMPS.PDU.PDU_2.PDU_INPUTFEEDBACKSTATEMISMATCHERROR,4,{OK=0 ERROR=1},1,,,,,,,,,,
TLM,AMPS.PDU.PDU_2,TLM_DATA_OUT,PDU_POSNEGMISMATCHERROR,PDU_POSNEGMISMATCHERROR,AMPS.PDU.PDU_2.PDU_POSNEGMISMATCHERROR,5,{OK=0 ERROR=1},1,,,,,,,,,,
TLM,AMPS.PDU.PDU_2,TLM_DATA_OUT,PDU_RPCCHANNELSTATUS,PDU_RPCCHANNELSTATUS,AMPS.PDU.PDU_2.PDU_RPCCHANNELSTATUS,6,INTEGER,1,,,,,,,,,,
TLM,AMPS.PDU.PDU_2,TLM_DATA_OUT,PDU_RPCTRIPSTATUS,PDU_RPCTRIPSTATUS,AMPS.PDU.PDU_2.PDU_RPCTRIPSTATUS,7,INTEGER,1,,,,,,,,,,
TLM,AMPS.PDU.PDU_2,TLM_DATA_OUT,PDU_RPCOUTSTATUS ,PDU_RPCOUTSTATUS ,AMPS.PDU.PDU_2.PDU_RPCOUTSTATUS ,8,INTEGER,1,,,,,,,,,,
TLM,AMPS.PDU.PDU_2,TLM_DATA_OUT,PDU_RPCMISMATCHERROR,PDU_RPCMISMATCHERROR,AMPS.PDU.PDU_2.PDU_RPCMISMATCHERROR,9,{OK=0 ERROR=1},1,,,,,,,,,,
TLM,AMPS.PDU.PDU_2,TLM_DATA_OUT,PDU_CURRENTBUS1,PDU_CURRENTBUS1,AMPS.PDU.PDU_2.PDU_CURRENTBUS1,10,FLOAT,8,A,,,,,,,,,
TLM,AMPS.PDU.PDU_2,TLM_DATA_OUT,PDU_CURRENTBUS2,PDU_CURRENTBUS2,AMPS.PDU.PDU_2.PDU_CURRENTBUS2,11,FLOAT,8,A,,,,,,,,,
TLM,AMPS.PDU.PDU_2,TLM_DATA_OUT,PDU_CURRENTINTERNALBUS,PDU_CURRENTINTERNALBUS,AMPS.PDU.PDU_2.PDU_CURRENTINTERNALBUS,12,FLOAT,8,A,,,,,,,,,
TLM,AMPS.PDU.PDU_2,TLM_DATA_OUT,PDU_VOLTAGEBUS1,PDU_VOLTAGEBUS1,AMPS.PDU.PDU_2.PDU_VOLTAGEBUS1,13,FLOAT,8,V,,,,,,,,,
TLM,AMPS.PDU.PDU_2,TLM_DATA_OUT,PDU_VOLTAGEBUS2,PDU_VOLTAGEBUS2,AMPS.PDU.PDU_2.PDU_VOLTAGEBUS2,14,FLOAT,8,V,,,,,,,,,
TLM,AMPS.PDU.PDU_2,TLM_DATA_OUT,PDU_VOLTAGEINTERNAL,PDU_VOLTAGEINTERNAL,AMPS.PDU.PDU_2.PDU_VOLTAGEINTERNAL,15,FLOAT,8,V,,,,,,,,,
TLM,AMPS.PDU.PDU_2,TLM_DATA_OUT,PDU_VOLTAGEHKPG,PDU_VOLTAGEHKPG,AMPS.PDU.PDU_2.PDU_VOLTAGEHKPG,16,FLOAT,8,V,,,,,,,,,
TLM,AMPS.PDU.PDU_2,TLM_DATA_OUT,PDU_CURRENTRPC1,PDU_CURRENTRPC1,AMPS.PDU.PDU_2.PDU_CURRENTRPC1,17,FLOAT,8,A,,,,,,,,,
TLM,AMPS.PDU.PDU_2,TLM_DATA_OUT,PDU_CURRENTRPC2,PDU_CURRENTRPC2,AMPS.PDU.PDU_2.PDU_CURRENTRPC2,18,FLOAT,8,A,,,,,,,,,
TLM,AMPS.PDU.PDU_2,TLM_DATA_OUT,PDU_CURRENTRPC3,PDU_CURRENTRPC3,AMPS.PDU.PDU_2.PDU_CURRENTRPC3,19,FLOAT,8,A,,,,,,,,,
TLM,AMPS.PDU.PDU_2,TLM_DATA_OUT,PDU_CURRENTRPC4,PDU_CURRENTRPC4,AMPS.PDU.PDU_2.PDU_CURRENTRPC4,20,FLOAT,8,A,,,,,,,,,
TLM,AMPS.PDU.PDU_2,TLM_DATA_OUT,PDU_CURRENTRPC5,PDU_CURRENTRPC5,AMPS.PDU.PDU_2.PDU_CURRENTRPC5,21,FLOAT,8,A,,,,,,,,,
TLM,AMPS.PDU.PDU_2,TLM_DATA_OUT,PDU_CURRENTRPC6,PDU_CURRENTRPC6,AMPS.PDU.PDU_2.PDU_CURRENTRPC6,22,FLOAT,8,A,,,,,,,,,
TLM,AMPS.PDU.PDU_2,TLM_DATA_OUT,PDU_CURRENTRPC7,PDU_CURRENTRPC7,AMPS.PDU.PDU_2.PDU_CURRENTRPC7,23,FLOAT,8,A,,,,,,,,,
TLM,AMPS.PDU.PDU_2,TLM_DATA_OUT,PDU_CURRENTRPC8,PDU_CURRENTRPC8,AMPS.PDU.PDU_2.PDU_CURRENTRPC8,24,FLOAT,8,A,,,,,,,,,
CMD,AMPS.PDU.PDU_2,CMD,SET_PDU_INPUT_BUS_SELECT,SET_PDU_INPUT_BUS_SELECT,AMPS.PDU.PDU_2.SET_PDU_INPUT_BUS_SELECT,0,INPUT_BUS_1,{OFF=0 ON=1},1,INPUT_BUS_2,{OFF=0 ON=1},1,,,,,,
CMD,AMPS.PDU.PDU_2,CMD,SET_PDU_RPC_CHANNEL_STATE,SET_PDU_RPC_CHANNEL_STATE,AMPS.PDU.PDU_2.SET_PDU_RPC_CHANNEL_STATE,1,RPCONOFFSTATE,INTEGER,1,RPCCHANNELMASK,{DISABLE=0 ENABLE=1},1,,,,,,
CMD,AMPS.PDU.PDU_2,CMD,SET_PDU_RPC_CHANNEL_OPEN,SET_PDU_RPC_CHANNEL_OPEN,AMPS.PDU.PDU_2.SET_PDU_RPC_CHANNEL_OPEN,2,FORCERPCOFF,INTEGER,1,RPCCHANNELMASK,{DISABLE=0 ENABLE=1},1,,,,,,
