TLM,HIVE.F_F.AUDIO.AUDIO_1,TLM_DATA_OUT,STATUS_UPDATE,STATUS_UPDATE,HIVE.F_F.AUDIO.AUDIO_1.STATUS_UPDATE,0,INTEGER,2,,,,,,,,,,
TLM,HIVE.F_F.AUDIO.AUDIO_1,TLM_DATA_OUT,PACKET_SIZE,PACKET_SIZE,HIVE.F_F.AUDIO.AUDIO_1.PACKET_SIZE,1,INTEGER,2,,,,,,,,,,
TLM,HIVE.F_F.AUDIO.AUDIO_1,TLM_DATA_OUT,LOCAL_RTP_PORT,LOCAL_RTP_PORT,HIVE.F_F.AUDIO.AUDIO_1.LOCAL_RTP_PORT,2,INTEGER,2,,,,,,,,,,
TLM,HIVE.F_F.AUDIO.AUDIO_1,TLM_DATA_OUT,USER_EXT,USER_EXT,HIVE.F_F.AUDIO.AUDIO_1.USER_EXT,3,INTEGER,2,,,,,,,,,,
TLM,HIVE.F_F.AUDIO.AUDIO_1,TLM_DATA_OUT,HEADSET_CONNECTIONS,HEADSET_CONNECTIONS,HIVE.F_F.AUDIO.AUDIO_1.HEADSET_CONNECTIONS,4,INTEGER,2,,,,,,,,,,
TLM,HIVE.F_F.AUDIO.AUDIO_1,TLM_DATA_OUT,SIMULCAST,SIMULCAST,HIVE.F_F.AUDIO.AUDIO_1.SIMULCAST,5,INTEGER,2,,,,,,,,,,
TLM,HIVE.F_F.AUDIO.AUDIO_1,TLM_DATA_OUT,MULTICAST,MULTICAST,HIVE.F_F.AUDIO.AUDIO_1.MULTICAST,6,INTEGER,2,,,,,,,,,,
TLM,HIVE.F_F.AUDIO.AUDIO_1,TLM_DATA_OUT,VADTX,VADTX,HIVE.F_F.AUDIO.AUDIO_1.VADTX,7,INTEGER,2,,,,,,,,,,
TLM,HIVE.F_F.AUDIO.AUDIO_1,TLM_DATA_OUT,CHANNEL_INFO,CHANNEL_INFO,HIVE.F_F.AUDIO.AUDIO_1.CHANNEL_INFO,8,STRING,64,,,,,,,,,,
TLM,HIVE.F_F.AUDIO.AUDIO_1,TLM_DATA_OUT,USER_INFO,USER_INFO,HIVE.F_F.AUDIO.AUDIO_1.USER_INFO,9,STRING,256,,,,,,,,,,
CMD,HIVE.F_F.AUDIO.AUDIO_1,CMD,CREW_LOGIN_ID,CREW_LOGIN_ID,HIVE.F_F.AUDIO.AUDIO_1.CREW_LOGIN_ID,0,,,,,,,,,,,,
CMD,HIVE.F_F.AUDIO.AUDIO_1,CMD,SERVER_PING_REQUEST,SERVER_PING_REQUEST,HIVE.F_F.AUDIO.AUDIO_1.SERVER_PING_REQUEST,1,,,,,,,,,,,,
CMD,HIVE.F_F.AUDIO.AUDIO_1,CMD,SET_VERSION,SET_VERSION,HIVE.F_F.AUDIO.AUDIO_1.SET_VERSION,2,,,,,,,,,,,,
CMD,HIVE.F_F.AUDIO.AUDIO_1,CMD,INITIATE_PTT,INITIATE_PTT,HIVE.F_F.AUDIO.AUDIO_1.INITIATE_PTT,3,,,,,,,,,,,,
CMD,HIVE.F_F.AUDIO.AUDIO_1,CMD,TERMINATE_PTT,TERMINATE_PTT,HIVE.F_F.AUDIO.AUDIO_1.TERMINATE_PTT,4,,,,,,,,,,,,
CMD,HIVE.F_F.AUDIO.AUDIO_1,CMD,SET_VOLUME,SET_VOLUME,HIVE.F_F.AUDIO.AUDIO_1.SET_VOLUME,5,,,,,,,,,,,,
CMD,HIVE.F_F.AUDIO.AUDIO_1,CMD,SET_DEVICE,SET_DEVICE,HIVE.F_F.AUDIO.AUDIO_1.SET_DEVICE,6,,,,,,,,,,,,
CMD,HIVE.F_F.AUDIO.AUDIO_1,CMD,SET_HEADSET,SET_HEADSET,HIVE.F_F.AUDIO.AUDIO_1.SET_HEADSET,7,,,,,,,,,,,,
CMD,HIVE.F_F.AUDIO.AUDIO_1,CMD,CLOSE_CONNECTION,CLOSE_CONNECTION,HIVE.F_F.AUDIO.AUDIO_1.CLOSE_CONNECTION,8,,,,,,,,,,,,
CMD,HIVE.F_F.AUDIO.AUDIO_1,CMD,INITIATE_SIP,INITIATE_SIP,HIVE.F_F.AUDIO.AUDIO_1.INITIATE_SIP,9,,,,,,,,,,,,
TLM,HIVE.HAB.AUDIO.AUDIO_1,TLM_DATA_OUT,STATUS_UPDATE,STATUS_UPDATE,HIVE.HAB.AUDIO.AUDIO_1.STATUS_UPDATE,0,INTEGER,2,,,,,,,,,,
TLM,HIVE.HAB.AUDIO.AUDIO_1,TLM_DATA_OUT,PACKET_SIZE,PACKET_SIZE,HIVE.HAB.AUDIO.AUDIO_1.PACKET_SIZE,1,INTEGER,2,,,,,,,,,,
TLM,HIVE.HAB.AUDIO.AUDIO_1,TLM_DATA_OUT,LOCAL_RTP_PORT,LOCAL_RTP_PORT,HIVE.HAB.AUDIO.AUDIO_1.LOCAL_RTP_PORT,2,INTEGER,2,,,,,,,,,,
TLM,HIVE.HAB.AUDIO.AUDIO_1,TLM_DATA_OUT,USER_EXT,USER_EXT,HIVE.HAB.AUDIO.AUDIO_1.USER_EXT,3,INTEGER,2,,,,,,,,,,
TLM,HIVE.HAB.AUDIO.AUDIO_1,TLM_DATA_OUT,HEADSET_CONNECTIONS,HEADSET_CONNECTIONS,HIVE.HAB.AUDIO.AUDIO_1.HEADSET_CONNECTIONS,4,INTEGER,2,,,,,,,,,,
TLM,HIVE.HAB.AUDIO.AUDIO_1,TLM_DATA_OUT,SIMULCAST,SIMULCAST,HIVE.HAB.AUDIO.AUDIO_1.SIMULCAST,5,INTEGER,2,,,,,,,,,,
TLM,HIVE.HAB.AUDIO.AUDIO_1,TLM_DATA_OUT,MULTICAST,MULTICAST,HIVE.HAB.AUDIO.AUDIO_1.MULTICAST,6,INTEGER,2,,,,,,,,,,
TLM,HIVE.HAB.AUDIO.AUDIO_1,TLM_DATA_OUT,VADTX,VADTX,HIVE.HAB.AUDIO.AUDIO_1.VADTX,7,INTEGER,2,,,,,,,,,,
TLM,HIVE.HAB.AUDIO.AUDIO_1,TLM_DATA_OUT,CHANNEL_INFO,CHANNEL_INFO,HIVE.HAB.AUDIO.AUDIO_1.CHANNEL_INFO,8,STRING,64,,,,,,,,,,
TLM,HIVE.HAB.AUDIO.AUDIO_1,TLM_DATA_OUT,USER_INFO,USER_INFO,HIVE.HAB.AUDIO.AUDIO_1.USER_INFO,9,STRING,256,,,,,,,,,,
CMD,HIVE.HAB.AUDIO.AUDIO_1,CMD,CREW_LOGIN_ID,CREW_LOGIN_ID,HIVE.HAB.AUDIO.AUDIO_1.CREW_LOGIN_ID,0,,,,,,,,,,,,
CMD,HIVE.HAB.AUDIO.AUDIO_1,CMD,SERVER_PING_REQUEST,SERVER_PING_REQUEST,HIVE.HAB.AUDIO.AUDIO_1.SERVER_PING_REQUEST,1,,,,,,,,,,,,
CMD,HIVE.HAB.AUDIO.AUDIO_1,CMD,SET_VERSION,SET_VERSION,HIVE.HAB.AUDIO.AUDIO_1.SET_VERSION,2,,,,,,,,,,,,
CMD,HIVE.HAB.AUDIO.AUDIO_1,CMD,INITIATE_PTT,INITIATE_PTT,HIVE.HAB.AUDIO.AUDIO_1.INITIATE_PTT,3,,,,,,,,,,,,
CMD,HIVE.HAB.AUDIO.AUDIO_1,CMD,TERMINATE_PTT,TERMINATE_PTT,HIVE.HAB.AUDIO.AUDIO_1.TERMINATE_PTT,4,,,,,,,,,,,,
CMD,HIVE.HAB.AUDIO.AUDIO_1,CMD,SET_VOLUME,SET_VOLUME,HIVE.HAB.AUDIO.AUDIO_1.SET_VOLUME,5,,,,,,,,,,,,
CMD,HIVE.HAB.AUDIO.AUDIO_1,CMD,SET_DEVICE,SET_DEVICE,HIVE.HAB.AUDIO.AUDIO_1.SET_DEVICE,6,,,,,,,,,,,,
CMD,HIVE.HAB.AUDIO.AUDIO_1,CMD,SET_HEADSET,SET_HEADSET,HIVE.HAB.AUDIO.AUDIO_1.SET_HEADSET,7,,,,,,,,,,,,
CMD,HIVE.HAB.AUDIO.AUDIO_1,CMD,CLOSE_CONNECTION,CLOSE_CONNECTION,HIVE.HAB.AUDIO.AUDIO_1.CLOSE_CONNECTION,8,,,,,,,,,,,,
CMD,HIVE.HAB.AUDIO.AUDIO_1,CMD,INITIATE_SIP,INITIATE_SIP,HIVE.HAB.AUDIO.AUDIO_1.INITIATE_SIP,9,,,,,,,,,,,,
